<svg width="900" height="865" viewBox="0 0 900 865" fill="none" xmlns="http://www.w3.org/2000/svg">
<g opacity="0.45">
<path d="M19.1152 491.265L384.851 673.887C407.152 684.28 407.152 715.459 384.851 727.337L19.1152 909.959C-0.212303 920.352 -24 905.505 -24 883.234V517.99C-24 495.719 -0.212303 482.357 19.1152 491.265Z" fill="#EFF2F5"/>
<path d="M924.566 128.992V29.5155C924.566 7.24456 900.778 -6.118 881.451 2.79038L108.351 388.82C86.0505 399.213 86.0505 430.393 108.351 442.271L127.679 451.179C141.059 451.179 154.44 451.179 169.307 449.694C332.848 440.786 493.414 397.729 637.627 326.462C741.698 273.011 839.822 206.198 924.566 128.992Z" fill="#EFF2F5"/>
<path d="M662.886 382.889C509.753 443.763 346.213 476.427 182.672 477.911L881.435 826.823C900.763 837.216 924.55 822.369 924.55 800.098V241.839C842.78 298.259 755.063 347.255 662.886 382.889Z" fill="#EFF2F5"/>
</g>
</svg>
